{
	"apptitle" : "Тестовое задание" ,
	"subtitle" : "Журнал посещений" ,
	"generate_file_name" : "config/generate.json" ,
	"log" : [
		"log/1.log" ,
		"log/2.log"
	] ,
	"buff_size" : 2048 ,
	"charset" : "utf8" ,
	"csv" : {
		"sep_char" : "|" ,
		"eol" : "\n" ,
		"quote" : "\"" ,
		"binary" : 1
	} ,
	"record_limit" : 30 ,
	"http" : {
		"ctype" : "Content-Type" ,
		"json" : "application/json; charset=utf-8" ,
		"charset" : "charset" ,
		"code" : {
			"ok" : 200
		}
	} ,
	"io_charset" : ":utf-8" ,
	"dba" : {
		"connection_string_dbo" : "pgsql:dbname=test" ,
		"connection_string" : "dbi:Pg:dbname=test" ,
		"login" : "test" ,
		"password" : "test" ,
		"settings" : {
			"AutoCommit" : 1 ,
			"RaiseError" : 1
		}
	} ,
	"upload" : {
		"script" : [
			"DELETE FROM \"log2\" ;"
		] ,
		"copy" : [
			{
				"table_name" : "log2" ,
				"fields" : "\"ip\" , \"user_agent\" , \"os_name\"" ,
				"log_id" : 1
			} , {
				"table_name" : "log1" ,
				"fields" : "\"datetime\" , \"ip\" , \"referrer_uri\" , \"request_uri\"" ,
				"log_id" : 0
			}
		]
	} ,
	"result" : {
		"metaData" : {
			"root" : "rows" ,
			"totalProperty" : "totalProperty" ,
			"fields" : [
				{
					"name" : "ip" ,
					"type" : "string"
				} , {
					"name" : "user_agent" ,
					"type" : "string"
				} , {
					"name" : "os_name" ,
					"type" : "string"
				} , {
					"name" : "request_uri_first" ,
					"type" : "string"
				} , {
					"name" : "request_uri_last" ,
					"type" : "string"
				} , {
					"name" : "request_uri_count" ,
					"type" : "string"
				}
			] ,
			"columns" : [
				{
					"text" : "IP-адрес" ,
					"dataIndex" : "ip" ,
					"id" : "ip" ,
					"flex" : 1 ,
					"filter" : "string"
				} , {
					"text" : "User-Agent" ,
					"dataIndex" : "user_agent" ,
					"id" : "user_agent" ,
					"flex" : 1
				} , {
					"text" : "ОС" ,
					"dataIndex" : "os_name" ,
					"id" : "os_name" ,
					"flex" : 1
				} , {
					"text" : "первый URI" ,
					"dataIndex" : "request_uri_first" ,
					"id" : "request_uri_first" ,
					"flex" : 1
				} , {
					"text" : "последний URI" ,
					"dataIndex" : "request_uri_last" ,
					"id" : "request_uri_last" ,
					"flex" : 1
				} , {
					"text" : "количество URI" ,
					"dataIndex" : "request_uri_count" ,
					"id" : "request_uri_count" ,
					"flex" : 1
				}
			]
		}
	}
}